StartFontMetrics 2.0
Comment Generated by FontForge 20150310
Comment Creation Date: Fri Apr  3 13:19:20 2015
FontName XXXX
FullName ZZZZ Regular
FamilyName ZZZZ
Weight Regular
Notice (Created by Christoph Haag for Open Source Publishing during a wonderful residency at Constant Variable. Made with Bash, Inkscape, Python, FontForge.)
ItalicAngle 0
IsFixedPitch false
UnderlinePosition -51
UnderlineThickness 25
Version 001.000
EncodingScheme FontSpecific
FontBBox -106 -693 1109 1577
CapHeight 980
XHeight 789
Ascender 1023
Descender -301
StartCharMetrics 278
C 0 ; WX 600 ; N macron ; B -74 759 674 907 ;
C 1 ; WX 300 ; N acircumflex ; B -91 -204 385 1048 ;
C 2 ; WX 512 ; N Ecircumflex ; B -20 -200 509 1089 ;
C 3 ; WX 345 ; N thorn ; B -55 -287 399 891 ;
C 4 ; WX 201 ; N icircumflex ; B -93 -185 259 1069 ;
C 5 ; WX 218 ; N semicolon ; B -14 -313 206 802 ;
C 6 ; WX 628 ; N Ocircumflex ; B 32 -205 600 1104 ;
C 7 ; WX 646 ; N Ntilde ; B -10 -693 657 1095 ;
C 8 ; WX 167 ; N colon ; B 8 -4 156 744 ;
C 9 ; WX 191 ; N period ; B 12 -11 160 267 ;
C 10 ; WX 649 ; N at ; B -7 -177 673 981 ;
C 11 ; WX 316 ; N yacute ; B -72 -375 377 1086 ;
C 12 ; WX 197 ; N Icircumflex ; B -94 -199 296 1101 ;
C 13 ; WX 0 ; N uni0099 ; B 0 0 0 0 ;
C 14 ; WX 445 ; N A ; B -91 -198 538 979 ;
C 15 ; WX 0 ; N uni0095 ; B 0 0 0 0 ;
C 16 ; WX 479 ; N ampersand ; B -35 -212 539 986 ;
C 17 ; WX 432 ; N eth ; B -54 -164 485 971 ;
C 18 ; WX 205 ; N exclam ; B 28 -173 177 969 ;
C 19 ; WX 401 ; N Y ; B -84 -174 484 1004 ;
C 20 ; WX 303 ; N slash ; B -86 -299 382 1068 ;
C 21 ; WX 342 ; N edieresis ; B -43 -171 410 929 ;
C 22 ; WX 399 ; N oslash ; B -67 -225 452 761 ;
C 23 ; WX 384 ; N ocircumflex ; B -50 -189 435 1067 ;
C 24 ; WX 376 ; N six ; B -27 -177 400 1013 ;
C 25 ; WX 55 ; N igrave ; B -96 -198 148 1056 ;
C 26 ; WX 0 ; N uni009A ; B 0 0 0 0 ;
C 27 ; WX 96 ; N Iacute ; B -47 -211 169 1124 ;
C 28 ; WX 305 ; N n ; B -55 -130 360 757 ;
C 29 ; WX 388 ; N b ; B -68 -602 412 1027 ;
C 30 ; WX 474 ; N numbersign ; B -42 -191 483 991 ;
C 31 ; WX 304 ; N uni00A0 ; B 0 0 0 0 ;
C 32 ; WX 637 ; N guillemotright ; B -19 -115 648 911 ;
C 33 ; WX 0 ; N uni008B ; B 0 0 0 0 ;
C 34 ; WX 239 ; N paragraph ; B -19 -294 251 1053 ;
C 35 ; WX 366 ; N two ; B -26 -178 405 980 ;
C 36 ; WX 385 ; N e ; B -15 -129 438 757 ;
C 37 ; WX 535 ; N B ; B -27 -180 559 985 ;
C 38 ; WX 300 ; N adieresis ; B -91 -187 384 958 ;
C 39 ; WX 107 ; N uni00B3 ; B -58 395 173 978 ;
C 40 ; WX 387 ; N Thorn ; B -50 -169 422 1008 ;
C 41 ; WX 0 ; N uni0088 ; B 0 0 0 0 ;
C 42 ; WX 919 ; N plusminus ; B 79 -274 829 1040 ;
C 43 ; WX 311 ; N h ; B -74 -183 366 1023 ;
C 44 ; WX 466 ; N less ; B 12 -54 500 827 ;
C 45 ; WX 62 ; N brokenbar ; B -42 -297 105 1063 ;
C 46 ; WX 284 ; N mu ; B -62 -259 373 646 ;
C 47 ; WX 459 ; N Acircumflex ; B 5 -220 454 1120 ;
C 48 ; WX 416 ; N yen ; B -61 -166 1109 1007 ;
C 49 ; WX 375 ; N cent ; B -43 -175 429 969 ;
C 50 ; WX 424 ; N four ; B -38 -178 459 994 ;
C 51 ; WX 563 ; N registered ; B -46 -108 594 874 ;
C 52 ; WX 302 ; N ucircumflex ; B -62 -182 356 1030 ;
C 53 ; WX 146 ; N ordfeminine ; B -57 411 237 925 ;
C 54 ; WX 708 ; N Q ; B -4 -346 740 1016 ;
C 55 ; WX 0 ; N uni009F ; B 0 0 0 0 ;
C 56 ; WX 628 ; N Oacute ; B 32 -203 600 1119 ;
C 57 ; WX 32 ; N ordmasculine ; B -47 413 192 969 ;
C 58 ; WX 424 ; N plus ; B -42 -165 471 932 ;
C 59 ; WX 344 ; N p ; B -55 -302 376 790 ;
C 60 ; WX 1036 ; N degree ; B -54 385 348 937 ;
C 61 ; WX 288 ; N x ; B -79 -158 366 788 ;
C 62 ; WX 411 ; N seven ; B -3 -193 430 986 ;
C 63 ; WX 385 ; N ograve ; B -50 -187 435 1052 ;
C 64 ; WX 78 ; N j ; B -80 -357 144 1056 ;
C 65 ; WX 806 ; N multiply ; B 43 -79 753 887 ;
C 66 ; WX 628 ; N Otilde ; B 32 -207 600 1129 ;
C 67 ; WX 459 ; N Aring ; B 5 -226 456 1120 ;
C 68 ; WX 370 ; N d ; B -19 -186 434 1025 ;
C 69 ; WX 628 ; N Ograve ; B 32 -211 600 1153 ;
C 70 ; WX 312 ; N y ; B -81 -328 381 811 ;
C 71 ; WX 285 ; N asciicircum ; B -90 543 376 886 ;
C 72 ; WX 380 ; N five ; B -62 -177 403 985 ;
C 73 ; WX 461 ; N greater ; B -26 -58 463 825 ;
C 74 ; WX 558 ; N W ; B -80 -169 640 986 ;
C 75 ; WX 453 ; N X ; B -67 -209 518 1012 ;
C 76 ; WX 0 ; N uni008A ; B 0 0 0 0 ;
C 77 ; WX 0 ; N uni0085 ; B 0 0 0 0 ;
C 78 ; WX 0 ; N uni0080 ; B 0 0 0 0 ;
C 79 ; WX 436 ; N equal ; B -42 123 471 545 ;
C 80 ; WX 413 ; N zero ; B -23 -175 437 982 ;
C 81 ; WX 225 ; N comma ; B -20 -206 201 294 ;
C 82 ; WX 537 ; N T ; B -23 -175 483 982 ;
C 83 ; WX 390 ; N J ; B -103 -171 405 976 ;
C 84 ; WX 357 ; N ccedilla ; B -54 -290 436 666 ;
C 85 ; WX 360 ; N q ; B -15 -302 420 790 ;
C 86 ; WX 0 ; N uni0089 ; B 0 0 0 0 ;
C 87 ; WX 222 ; N quotesingle ; B -26 329 206 846 ;
C 88 ; WX 549 ; N m ; B -53 -131 592 758 ;
C 89 ; WX 213 ; N r ; B -53 -130 275 758 ;
C 90 ; WX 593 ; N Eth ; B 12 -173 562 983 ;
C 91 ; WX 419 ; N currency ; B -31 -262 447 1029 ;
C 92 ; WX 309 ; N u ; B -54 -128 357 753 ;
C 93 ; WX 447 ; N K ; B -24 -205 514 1022 ;
C 94 ; WX 310 ; N v ; B -67 -117 378 762 ;
C 95 ; WX 564 ; N G ; B -15 -175 597 982 ;
C 96 ; WX 185 ; N braceleft ; B -62 -353 266 1113 ;
C 97 ; WX 658 ; N sterling ; B -7 -178 640 979 ;
C 98 ; WX 393 ; N z ; B -27 -132 421 761 ;
C 99 ; WX 0 ; N uni0083 ; B 0 0 0 0 ;
C 100 ; WX 609 ; N guillemotleft ; B -25 -145 644 911 ;
C 101 ; WX 120 ; N Igrave ; B -61 -206 163 1117 ;
C 102 ; WX 360 ; N questiondown ; B -50 -225 408 994 ;
C 103 ; WX 403 ; N otilde ; B -80 -176 482 975 ;
C 104 ; WX 300 ; N agrave ; B -91 -202 385 1053 ;
C 105 ; WX 445 ; N E ; B -26 -173 457 982 ;
C 106 ; WX 0 ; N uni008D ; B 0 0 0 0 ;
C 107 ; WX 923 ; N divide ; B 79 19 833 790 ;
C 108 ; WX 588 ; N M ; B -37 -172 611 966 ;
C 109 ; WX 334 ; N backslash ; B -70 -300 405 1065 ;
C 110 ; WX 368 ; N c ; B -27 -126 437 754 ;
C 111 ; WX 322 ; N a ; B -37 -129 382 757 ;
C 112 ; WX 473 ; N S ; B -38 -174 510 982 ;
C 113 ; WX 705 ; N Ccedilla ; B 24 -319 669 796 ;
C 114 ; WX 498 ; N onequarter ; B -19 -203 529 1019 ;
C 115 ; WX 342 ; N egrave ; B -43 -191 410 1052 ;
C 116 ; WX 0 ; N uni0087 ; B 0 0 0 0 ;
C 117 ; WX 0 ; N uni0084 ; B 0 0 0 0 ;
C 118 ; WX 451 ; N V ; B -87 -177 536 999 ;
C 119 ; WX 486 ; N U ; B -23 -174 529 979 ;
C 120 ; WX 0 ; N uni0091 ; B 0 0 0 0 ;
C 121 ; WX 90 ; N f ; B -74 -184 261 1025 ;
C 122 ; WX 638 ; N O ; B -4 -174 642 995 ;
C 123 ; WX 654 ; N AE ; B -2 -160 619 761 ;
C 124 ; WX 160 ; N bar ; B 4 -293 152 1067 ;
C 125 ; WX 0 ; N uni0097 ; B 0 0 0 0 ;
C 126 ; WX 79 ; N cedilla ; B -88 -238 127 292 ;
C 127 ; WX 302 ; N uacute ; B -54 -183 346 1051 ;
C 128 ; WX 325 ; N asciitilde ; B -51 608 376 817 ;
C 129 ; WX 346 ; N atilde ; B -92 -192 450 975 ;
C 130 ; WX 628 ; N Odieresis ; B 32 -192 601 1067 ;
C 131 ; WX 0 ; N uni009D ; B 0 0 0 0 ;
C 132 ; WX 342 ; N eacute ; B -43 -191 410 1052 ;
C 133 ; WX 385 ; N odieresis ; B -50 -167 435 928 ;
C 134 ; WX 681 ; N ae ; B 12 -109 658 637 ;
C 135 ; WX 484 ; N threequarters ; B -51 -203 515 1020 ;
C 136 ; WX 400 ; N ntilde ; B -77 -167 479 972 ;
C 137 ; WX 185 ; N braceright ; B -75 -334 247 1109 ;
C 138 ; WX 376 ; N quotedbl ; B 17 337 419 848 ;
C 139 ; WX 587 ; N Uacute ; B 20 -201 568 1148 ;
C 140 ; WX 489 ; N onehalf ; B -19 -196 524 1021 ;
C 141 ; WX 512 ; N Edieresis ; B -20 -193 509 1051 ;
C 142 ; WX 0 ; N uni0092 ; B 0 0 0 0 ;
C 143 ; WX 445 ; N F ; B -23 -175 457 980 ;
C 144 ; WX 256 ; N bracketright ; B -31 -307 258 1078 ;
C 145 ; WX 566 ; N logicalnot ; B -19 200 561 608 ;
C 146 ; WX 587 ; N Ugrave ; B 20 -202 568 1159 ;
C 147 ; WX 178 ; N parenright ; B -84 -366 225 1128 ;
C 148 ; WX 0 ; N uni008F ; B 0 0 0 0 ;
C 149 ; WX 408 ; N L ; B -28 -177 432 980 ;
C 150 ; WX 300 ; N aring ; B -91 -207 385 1052 ;
C 151 ; WX 300 ; N aacute ; B -91 -202 385 1053 ;
C 152 ; WX 0 ; N uni0086 ; B 0 0 0 0 ;
C 153 ; WX 413 ; N three ; B -42 -177 428 986 ;
C 154 ; WX 590 ; N C ; B -11 -174 606 982 ;
C 155 ; WX 207 ; N Idieresis ; B -50 -203 257 1085 ;
C 156 ; WX 563 ; N copyright ; B -47 -108 594 874 ;
C 157 ; WX 31 ; N uni00AD ; B 0 0 0 0 ;
C 158 ; WX 0 ; N uni0090 ; B 0 0 0 0 ;
C 159 ; WX 372 ; N nine ; B -31 -210 396 981 ;
C 160 ; WX 542 ; N Yacute ; B 6 -186 529 1143 ;
C 161 ; WX 459 ; N Aacute ; B -1 -221 456 1117 ;
C 162 ; WX 0 ; N uni008E ; B 0 0 0 0 ;
C 163 ; WX 499 ; N Atilde ; B 1 -222 490 1108 ;
C 164 ; WX 334 ; N eight ; B -43 -172 381 981 ;
C 165 ; WX 0 ; N uni009C ; B 0 0 0 0 ;
C 166 ; WX 459 ; N Agrave ; B -1 -221 456 1118 ;
C 167 ; WX 385 ; N oacute ; B -50 -187 435 1052 ;
C 168 ; WX 81 ; N l ; B -58 -196 155 1020 ;
C 169 ; WX 0 ; N uni0082 ; B 0 0 0 0 ;
C 170 ; WX 432 ; N dieresis ; B 24 641 412 789 ;
C 171 ; WX 70 ; N i ; B -39 -180 109 1020 ;
C 172 ; WX 125 ; N grave ; B -58 540 184 885 ;
C 173 ; WX 459 ; N R ; B -23 -201 534 985 ;
C 174 ; WX 0 ; N uni0098 ; B 0 0 0 0 ;
C 175 ; WX 480 ; N H ; B -39 -175 511 980 ;
C 176 ; WX 344 ; N hyphen ; B -42 245 391 392 ;
C 177 ; WX 564 ; N Oslash ; B -2 -289 555 1093 ;
C 178 ; WX 106 ; N uni00B2 ; B -69 397 169 972 ;
C 179 ; WX 486 ; N one ; B 55 -181 439 997 ;
C 180 ; WX 0 ; N uni0096 ; B 0 0 0 0 ;
C 181 ; WX 565 ; N D ; B -48 -176 553 1010 ;
C 182 ; WX 587 ; N Ucircumflex ; B 20 -196 568 1100 ;
C 183 ; WX 391 ; N o ; B -35 -126 423 767 ;
C 184 ; WX 0 ; N uni008C ; B 0 0 0 0 ;
C 185 ; WX 1045 ; N section ; B 176 -276 874 1040 ;
C 186 ; WX 0 ; N uni0094 ; B 0 0 0 0 ;
C 187 ; WX 63 ; N iacute ; B -92 -198 145 1053 ;
C 188 ; WX 496 ; N w ; B -75 -119 556 762 ;
C 189 ; WX 229 ; N underscore ; B -74 -144 303 3 ;
C 190 ; WX 380 ; N question ; B -58 -163 396 976 ;
C 191 ; WX 162 ; N exclamdown ; B 4 -266 154 1037 ;
C 192 ; WX 0 ; N uni0081 ; B 0 0 0 0 ;
C 193 ; WX 0 ; N uni007F ; B 0 0 0 0 ;
C 194 ; WX 173 ; N parenleft ; B -47 -362 258 1128 ;
C 195 ; WX 588 ; N Udieresis ; B 20 -189 568 1069 ;
C 196 ; WX 70 ; N uni00B9 ; B -89 394 173 1577 ;
C 197 ; WX 495 ; N percent ; B -23 -265 518 1062 ;
C 198 ; WX 0 ; N uni0093 ; B 0 0 0 0 ;
C 199 ; WX 302 ; N ugrave ; B -54 -183 346 1051 ;
C 200 ; WX 481 ; N dollar ; B -41 -368 534 1122 ;
C 201 ; WX 361 ; N g ; B -30 -295 384 789 ;
C 202 ; WX 280 ; N acute ; B 22 563 270 857 ;
C 203 ; WX 336 ; N asterisk ; B -62 -168 396 972 ;
C 204 ; WX 475 ; N N ; B -39 -175 511 983 ;
C 205 ; WX 282 ; N bracketleft ; B 3 -309 322 1077 ;
C 206 ; WX 501 ; N Euro ; B -74 -192 590 988 ;
C 207 ; WX 0 ; N uni009E ; B 0 0 0 0 ;
C 208 ; WX 234 ; N t ; B -62 -176 288 980 ;
C 209 ; WX 0 ; N uni009B ; B 0 0 0 0 ;
C 210 ; WX 464 ; N germandbls ; B -39 -175 468 979 ;
C 211 ; WX 512 ; N Egrave ; B -20 -200 509 1112 ;
C 212 ; WX 458 ; N Adieresis ; B -5 -217 457 1073 ;
C 213 ; WX 459 ; N Z ; B -11 -175 470 982 ;
C 214 ; WX 342 ; N ecircumflex ; B -43 -194 410 1069 ;
C 215 ; WX 304 ; N udieresis ; B -54 -163 348 927 ;
C 216 ; WX 255 ; N I ; B -19 -178 264 985 ;
C 217 ; WX 479 ; N P ; B -19 -173 526 983 ;
C 218 ; WX 197 ; N idieresis ; B -62 -173 255 949 ;
C 219 ; WX 296 ; N k ; B -76 -209 362 1024 ;
C 220 ; WX 512 ; N Eacute ; B -20 -200 508 1113 ;
C 221 ; WX 362 ; N s ; B -30 -129 392 754 ;
C 222 ; WX 121 ; N periodcentered ; B -15 269 132 525 ;
C 223 ; WX 622 ; N ellipsis ; B -74 302 696 449 ;
C 224 ; WX 83 ; N quoteright ; B -95 470 138 919 ;
C 225 ; WX 70 ; N quoteleft ; B -74 482 173 958 ;
C 226 ; WX 259 ; N quotedblright ; B -95 467 341 920 ;
C 227 ; WX 257 ; N quotedblleft ; B -75 510 348 979 ;
C 228 ; WX 354 ; N endash ; B -74 329 428 476 ;
C 229 ; WX 591 ; N emdash ; B -74 325 665 472 ;
C 230 ; WX 1000 ; N uni2461 ; B -74 -279 856 1046 ;
C 231 ; WX 1000 ; N uni2160 ; B -74 -178 521 983 ;
C 232 ; WX 1000 ; N oe ; B -74 -116 559 638 ;
C 233 ; WX 1000 ; N uni2463 ; B -74 -279 856 1046 ;
C 234 ; WX 1000 ; N uni266D ; B -76 -276 427 1040 ;
C 235 ; WX 1000 ; N uni266E ; B -84 -282 267 1047 ;
C 236 ; WX 1000 ; N uni266C ; B -102 -235 538 1009 ;
C 237 ; WX 1000 ; N arrowdown ; B -102 -240 396 1092 ;
C 238 ; WX 1000 ; N uni2464 ; B -74 -279 856 1046 ;
C 239 ; WX 1000 ; N uni2165 ; B -74 -184 844 990 ;
C 240 ; WX 1000 ; N musicalnote ; B -77 -215 542 1039 ;
C 241 ; WX 1000 ; N uni2465 ; B -74 -279 856 1046 ;
C 242 ; WX 1000 ; N uni2166 ; B -74 -193 928 995 ;
C 243 ; WX 1000 ; N uni2467 ; B -74 -279 856 1046 ;
C 244 ; WX 1000 ; N uni2462 ; B -74 -279 856 1046 ;
C 245 ; WX 1000 ; N uni266F ; B -95 -277 625 1225 ;
C 246 ; WX 1000 ; N uni2167 ; B -74 -191 925 996 ;
C 247 ; WX 1000 ; N uni2468 ; B -74 -279 856 1046 ;
C 248 ; WX 1000 ; N uni2164 ; B -74 -179 830 985 ;
C 249 ; WX 1000 ; N musicalnotedbl ; B -104 -237 539 1006 ;
C 250 ; WX 1000 ; N uni24EA ; B -74 -279 856 1046 ;
C 251 ; WX 1000 ; N uni2161 ; B -74 -189 700 989 ;
C 252 ; WX 1000 ; N uni216A ; B -74 -184 837 985 ;
C 253 ; WX 1000 ; N uni2162 ; B -74 -184 844 987 ;
C 254 ; WX 1000 ; N arrowleft ; B -74 57 849 708 ;
C 255 ; WX 1000 ; N uni216E ; B -102 -174 453 1007 ;
C -1 ; WX 1000 ; N uni216C ; B -75 -175 509 975 ;
C -1 ; WX 1000 ; N arrowup ; B -102 -272 399 1032 ;
C -1 ; WX 1000 ; N uni2163 ; B -74 -185 844 988 ;
C -1 ; WX 1000 ; N uni2466 ; B -74 -279 856 1046 ;
C -1 ; WX 1000 ; N uni2169 ; B -74 -184 741 988 ;
C -1 ; WX 1000 ; N uni216B ; B -73 -179 845 983 ;
C -1 ; WX 1000 ; N arrowright ; B -74 59 849 712 ;
C -1 ; WX 1000 ; N uni2460 ; B -74 -279 856 1046 ;
C -1 ; WX 1000 ; N OE ; B -74 -173 547 979 ;
C -1 ; WX 1000 ; N uni216D ; B -74 -173 523 979 ;
C -1 ; WX 1000 ; N uni216F ; B -74 -167 575 965 ;
C -1 ; WX 1000 ; N uni2168 ; B -74 -191 852 995 ;
C -1 ; WX 1000 ; N uni2669 ; B -101 -231 159 1029 ;
C -1 ; WX 1000 ; N minute ; B -97 579 176 952 ;
C -1 ; WX 1000 ; N uni2222 ; B -75 -34 447 820 ;
C -1 ; WX 1000 ; N second ; B -68 579 397 952 ;
C -1 ; WX 352 ; N uni1EA1 ; B 8 -356 427 803 ;
C -1 ; WX 67 ; N u1D184 ; B -106 -286 173 1002 ;
C -1 ; WX 67 ; N u1D183 ; B -105 -194 174 1095 ;
C -1 ; WX 658 ; N uni21DD ; B -90 156 750 671 ;
C -1 ; WX 658 ; N uni21DC ; B -85 156 755 670 ;
C -1 ; WX 1000 ; N uniFFFF ; B 0 0 0 0 ;
EndCharMetrics
EndFontMetrics
